2006/dump.vcd
$date
	Thu Feb 16 20:37:20 2023
$end
$version
	ModelSim Version 10.1d
$end
$timescale
	10ps
$end
$scope module test $end
$var parameter 72 ! INPUT_DATA $end
$var parameter 80 " EXPECT_DATA $end
$var parameter 32 # period $end
$var reg 1 $ clk $end
$var reg 1 % reset $end
$var reg 1 & nt $end
$var reg 3 ' xi [2:0] $end
$var reg 3 ( yi [2:0] $end
$var wire 1 ) xo [2] $end
$var wire 1 * xo [1] $end
$var wire 1 + xo [0] $end
$var wire 1 , yo [2] $end
$var wire 1 - yo [1] $end
$var wire 1 . yo [0] $end
$var wire 1 / po $end
$var wire 1 0 busy $end
$var integer 32 1 i $end
$var integer 32 2 j $end
$var integer 32 3 k $end
$var integer 32 4 l $end
$var integer 32 5 out_f $end
$var integer 32 6 err $end
$var integer 32 7 pattern_num $end
$var integer 32 8 total_num $end
$var integer 32 9 total_cycle_num $end
$var integer 32 : a $end
$var integer 32 ; b $end
$var integer 32 < c $end
$var integer 32 = d $end
$var reg 6 > data_tmp_expect [5:0] $end
$var reg 6 ? data_tmp_i1 [5:0] $end
$var reg 6 @ data_tmp_i2 [5:0] $end
$var reg 6 A data_tmp_i3 [5:0] $end
$scope module top $end
$var parameter 3 B IDLE $end
$var parameter 3 C READ $end
$var parameter 3 D CAL_OUT $end
$var wire 1 E clk $end
$var wire 1 F reset $end
$var wire 1 G nt $end
$var wire 1 H xi [2] $end
$var wire 1 I xi [1] $end
$var wire 1 J xi [0] $end
$var wire 1 K yi [2] $end
$var wire 1 L yi [1] $end
$var wire 1 M yi [0] $end
$var reg 1 N busy $end
$var reg 1 O po $end
$var reg 3 P xo [2:0] $end
$var reg 3 Q yo [2:0] $end
$var reg 3 R state [2:0] $end
$var reg 3 S next_state [2:0] $end
$var reg 3 T x1 [2:0] $end
$var reg 3 U y1 [2:0] $end
$var reg 3 V x2 [2:0] $end
$var reg 3 W y2 [2:0] $end
$var reg 3 X x3 [2:0] $end
$var reg 3 Y y3 [2:0] $end
$var reg 2 Z counter [1:0] $end
$var reg 3 [ x [2:0] $end
$var reg 3 \ y [2:0] $end
$var reg 2 ] mode [1:0] $end
$var wire 1 ^ to12 [5] $end
$var wire 1 _ to12 [4] $end
$var wire 1 ` to12 [3] $end
$var wire 1 a to12 [2] $end
$var wire 1 b to12 [1] $end
$var wire 1 c to12 [0] $end
$var wire 1 d to23 [5] $end
$var wire 1 e to23 [4] $end
$var wire 1 f to23 [3] $end
$var wire 1 g to23 [2] $end
$var wire 1 h to23 [1] $end
$var wire 1 i to23 [0] $end
$var wire 1 j to31 [5] $end
$var wire 1 k to31 [4] $end
$var wire 1 l to31 [3] $end
$var wire 1 m to31 [2] $end
$var wire 1 n to31 [1] $end
$var wire 1 o to31 [0] $end
$upscope $end
$upscope $end
$enddefinitions $end
#0
$dumpvars
1$
0%
0&
bz '
bz (
bx >
bx ?
bx @
bx A
0N
0O
bx P
bx Q
b0 R
b0 S
bx T
bx U
bx V
bx W
bx X
bx Y
b0 Z
bx [
bx \
b0 ]
b1111101000 #
b0 B
b1 C
b10 D
b11010010110111001110000011101010111010000101110011001000110000101110100 !
b1100101011110000111000001100101011000110111010000101110011001000110000101110100 "
b0 1
b0 2
b0 3
b0 4
b10 5
b0 6
b1 7
b0 8
bx 9
bx :
bx ;
bx <
bx =
x+
x*
x)
x.
x-
x,
0/
00
xc
xb
xa
x`
x_
x^
xi
xh
xg
xf
xe
xd
xo
xn
xm
xl
xk
xj
zM
zL
zK
zJ
zI
zH
0G
0F
1E
$end
#5000
0$
0E
1%
1F
b1 [
b1 \
#10000
1$
1E
b0 9
#14999
0%
b11 3
0F
#15000
0$
0E
1&
1G
b1 S
#18000
b1001 ?
b1 '
b1 (
1M
0L
0K
1J
0I
0H
#20000
1$
1E
b1 9
b1 R
b1 T
b1 U
b1 Z
#22000
bz '
bz (
zM
zL
zK
zJ
zI
zH
#25000
0$
0E
0&
0G
#28000
b100001 @
b100 '
b1 (
1M
0L
0K
0J
0I
1H
#30000
1$
1E
b10 9
b100 V
b1 W
b10 Z
1N
0c
0b
0a
0`
0_
0^
10
#32000
bz '
bz (
zM
zL
zK
zJ
zI
zH
#35000
0$
0E
#38000
b1111 A
b1 '
b111 (
1M
1L
1K
1J
0I
0H
#40000
1$
1E
b11 9
b1 X
b111 Y
b11 Z
0i
1h
0g
0f
1e
0d
0o
0n
0m
0l
0k
0j
b10 S
#42000
bz '
bz (
b11 1
zM
zL
zK
zJ
zI
zH
#45000
0$
0E
b0 3
#50000
1$
1E
b100 9
b10 R
b0 Z
1O
b1 P
b1 Q
b1 ]
b10 [
1/
0h
1g
1f
0e
1n
1m
1.
0-
0,
1+
0*
0)
#55000
0$
0E
#60000
1$
1E
b1001 >
b1 4
b101 9
b10 P
b11 [
1h
0f
0n
1l
0+
1*
#65000
0$
0E
#70000
1$
1E
b10001 >
b10 4
b110 9
b11 P
b100 [
0h
0g
1n
0m
0l
1k
1+
#75000
0$
0E
#80000
1$
1E
b11001 >
b11 4
b111 9
b100 P
b101 [
1h
1f
1e
1d
0n
1l
0+
0*
1)
#85000
0$
0E
#90000
1$
1E
b100001 >
b100 4
b1000 9
0O
b110 [
0/
0h
1g
0f
1n
1m
#95000
0$
0E
#100000
1$
1E
b1001 9
b111 [
1h
1f
0e
0n
0l
0k
1j
#105000
0$
0E
#110000
1$
1E
b1010 9
b10 \
b1 [
1c
1b
1i
0d
0m
0j
#115000
0$
0E
#120000
1$
1E
b1011 9
1O
b1 P
b10 Q
b10 ]
b10 [
1/
0h
0g
1n
1m
0.
1-
1+
0)
#125000
0$
0E
#130000
1$
1E
b1010 >
b101 4
b1100 9
b10 P
b11 ]
b11 [
1h
0f
0n
1l
0+
1*
#135000
0$
0E
#140000
1$
1E
b10010 >
b110 4
b1101 9
b11 P
b100 [
0h
1g
1f
1e
1d
1n
0m
0l
1k
1+
#145000
0$
0E
#150000
1$
1E
b11010 >
b111 4
b1110 9
0O
b101 [
0/
1h
0f
0n
1l
#155000
0$
0E
#160000
1$
1E
b1111 9
b110 [
0h
0g
1n
1m
#165000
0$
0E
#170000
1$
1E
b10000 9
b111 [
1h
1f
0e
0n
0l
0k
1j
#175000
0$
0E
#180000
1$
1E
b10001 9
b11 \
b1 [
0c
1a
0i
0h
1g
0d
0m
0j
#185000
0$
0E
#190000
1$
1E
b10010 9
1O
b1 P
b11 Q
b10 ]
b10 [
1/
1h
0f
1n
1m
1.
0*
#195000
0$
0E
#200000
1$
1E
b1011 >
b1000 4
b10011 9
b10 P
b11 ]
b11 [
0h
0g
0n
1l
0+
1*
#205000
0$
0E
#210000
1$
1E
b10011 >
b1001 4
b10100 9
b11 P
b100 [
1h
1f
1e
1d
1n
0m
0l
1k
1+
#215000
0$
0E
#220000
1$
1E
b11011 >
b1010 4
b10101 9
0O
b101 [
0/
0h
1g
0f
0n
1l
#225000
0$
0E
#230000
1$
1E
b10110 9
b110 [
1h
1f
0e
1n
1m
#235000
0$
0E
#240000
1$
1E
b10111 9
b111 [
0h
0g
0n
0l
0k
1j
#245000
0$
0E
#250000
1$
1E
b11000 9
b100 \
b1 [
1c
0b
0a
1`
1i
0d
0m
0j
#255000
0$
0E
#260000
1$
1E
b11001 9
1O
b1 P
b100 Q
b10 ]
b10 [
1/
1h
0f
1n
1m
0.
0-
1,
0*
#265000
0$
0E
#270000
1$
1E
b1100 >
b1011 4
b11010 9
b10 P
b11 ]
b11 [
0h
1g
1f
1e
1d
0n
1l
0+
1*
#275000
0$
0E
#280000
1$
1E
b10100 >
b1100 4
b11011 9
0O
b100 [
0/
1h
0f
1n
0m
0l
1k
#285000
0$
0E
#290000
1$
1E
b11100 9
b101 [
0h
0g
0n
1l
#295000
0$
0E
#300000
1$
1E
b11101 9
b110 [
1h
1f
0e
1n
1m
#305000
0$
0E
#310000
1$
1E
b11110 9
b111 [
0h
1g
0f
0n
0l
0k
1j
#315000
0$
0E
#320000
1$
1E
b11111 9
b101 \
b1 [
0c
1a
0i
1h
0d
0m
0j
#325000
0$
0E
#330000
1$
1E
b100000 9
1O
b1 P
b101 Q
b10 ]
b10 [
1/
0h
0g
1n
1m
1.
1+
0*
#335000
0$
0E
#340000
1$
1E
b1101 >
b1101 4
b100001 9
b10 P
b11 ]
b11 [
1h
1f
1e
1d
0n
1l
0+
1*
#345000
0$
0E
#350000
1$
1E
b10101 >
b1110 4
b100010 9
0O
b100 [
0/
0h
1g
0f
1n
0m
0l
1k
#355000
0$
0E
#360000
1$
1E
b100011 9
b101 [
1h
1f
0e
0n
1l
#365000
0$
0E
#370000
1$
1E
b100100 9
b110 [
0h
0g
1n
1m
#375000
0$
0E
#380000
1$
1E
b100101 9
b111 [
1h
0f
0n
0l
0k
1j
#385000
0$
0E
#390000
1$
1E
b100110 9
b110 \
b1 [
1c
1b
1i
0d
0m
0j
#395000
0$
0E
#400000
1$
1E
b100111 9
1O
b1 P
b110 Q
b10 ]
b10 [
1/
0h
1g
1f
1e
1d
1n
1m
0.
1-
1+
0*
#405000
0$
0E
#410000
1$
1E
b1110 >
b1111 4
b101000 9
0O
b11 [
0/
1h
0f
0n
1l
#415000
0$
0E
#420000
1$
1E
b101001 9
b100 [
0h
0g
1n
0m
0l
1k
#425000
0$
0E
#430000
1$
1E
b101010 9
b101 [
1h
1f
0e
0n
1l
#435000
0$
0E
#440000
1$
1E
b101011 9
b110 [
0h
1g
0f
1n
1m
#445000
0$
0E
#450000
1$
1E
b101100 9
b111 [
1h
1f
1e
0d
0n
0l
0k
1j
#455000
0$
0E
#460000
1$
1E
b101101 9
b111 \
b1 [
0c
0a
0`
1_
0i
0h
0g
0f
0e
0m
0j
#465000
0$
0E
#470000
1$
1E
b101110 9
1O
b111 Q
b10 [
1/
1h
1f
1e
1d
1n
1m
1.
#475000
0$
0E
#480000
1$
1E
b1111 >
b10000 4
b101111 9
0O
b11 [
0/
0h
1g
0f
0n
1l
#485000
0$
0E
#490000
1$
1E
b110000 9
b100 [
1h
1f
0e
1n
0m
0l
1k
#495000
0$
0E
#500000
1$
1E
b110001 9
b101 [
0h
0g
0n
1l
#505000
0$
0E
#510000
1$
1E
b110010 9
b110 [
1h
0f
1n
1m
#515000
0$
0E
#520000
1$
1E
b110011 9
b111 [
0h
1g
1f
1e
0d
0n
0l
0k
1j
b0 S
#525000
0$
0E
#530000
1$
1E
b110100 9
b0 R
0N
b0 ]
00
#535000
0$
0E
b11 3
#540000
1$
1E
b110101 9
#545000
0$
0E
1&
1G
b1 S
#548000
b1 '
b1 (
1M
0L
0K
1J
0I
0H
#550000
1$
1E
b110110 9
b1 R
b1 Z
#552000
bz '
bz (
zM
zL
zK
zJ
zI
zH
#555000
0$
0E
0&
0G
#558000
b111001 @
b111 '
b1 (
1M
0L
0K
1J
1I
1H
#560000
1$
1E
b110111 9
b111 V
b10 Z
1N
0b
1a
0_
1^
10
#562000
bz '
bz (
zM
zL
zK
zJ
zI
zH
#565000
0$
0E
#568000
b1011 A
b1 '
b11 (
1M
1L
0K
1J
0I
0H
#570000
1$
1E
b111000 9
b11 Y
b11 Z
1l
0j
b10 S
#572000
bz '
bz (
b110 1
zM
zL
zK
zJ
zI
zH
#575000
0$
0E
#580000
1$
1E
b111001 9
b10 R
b0 Z
b0 \
b1 [
1b
0a
1`
1_
1h
0g
0f
0m
0l
#585000
0$
0E
#590000
1$
1E
b111010 9
b10 [
0h
1n
#595000
0$
0E
#600000
1$
1E
b111011 9
b11 [
1h
1g
1f
0e
0n
1m
#605000
0$
0E
#610000
1$
1E
b111100 9
b100 [
0h
1n
#615000
0$
0E
#620000
1$
1E
b111101 9
b101 [
1h
0g
0n
0m
1l
#625000
0$
0E
#630000
1$
1E
b111110 9
b110 [
0h
1n
#635000
0$
0E
#640000
1$
1E
b111111 9
b111 [
1h
1g
0f
0n
1m
#645000
0$
0E
#650000
1$
1E
b1000000 9
b1 \
b1 [
0b
0`
0_
0^
0h
1f
0m
0l
#655000
0$
0E
#660000
1$
1E
b1000001 9
1O
b1 Q
b1 ]
b10 [
1/
1h
0g
1n
0-
0,
#665000
0$
0E
#670000
1$
1E
b100