2005/cs.vcd
$date
	Sun Dec 04 15:35:15 2022
$end
$version
	ModelSim Version 10.1d
$end
$timescale
	10ps
$end
$scope module test $end
$var parameter 64 ! INPUT_DATA $end
$var parameter 128 " GOLDEN $end
$var parameter 32 # N_PAT $end
$var parameter 32 $ t_reset $end
$var reg 1 % reset $end
$var reg 1 & clk $end
$var reg 1 ' ready $end
$var reg 1 ( stop $end
$var reg 1 ) flag1 $end
$var reg 1 * flag2 $end
$var wire 1 + pclk $end
$var integer 32 , i $end
$var integer 32 - out_f $end
$var integer 32 . err $end
$var integer 32 / pattern_num $end
$var integer 32 0 a $end
$var integer 32 1 b $end
$var reg 8 2 X [7:0] $end
$var reg 10 3 data_tmp [9:0] $end
$var wire 1 4 Y [9] $end
$var wire 1 5 Y [8] $end
$var wire 1 6 Y [7] $end
$var wire 1 7 Y [6] $end
$var wire 1 8 Y [5] $end
$var wire 1 9 Y [4] $end
$var wire 1 : Y [3] $end
$var wire 1 ; Y [2] $end
$var wire 1 < Y [1] $end
$var wire 1 = Y [0] $end
$scope module top $end
$var wire 1 > clk $end
$var wire 1 ? reset $end
$var wire 1 @ X [7] $end
$var wire 1 A X [6] $end
$var wire 1 B X [5] $end
$var wire 1 C X [4] $end
$var wire 1 D X [3] $end
$var wire 1 E X [2] $end
$var wire 1 F X [1] $end
$var wire 1 G X [0] $end
$var reg 10 H Y [9:0] $end
$var reg 4 I counter [3:0] $end
$var wire 1 J X_SUM [11] $end
$var wire 1 K X_SUM [10] $end
$var wire 1 L X_SUM [9] $end
$var wire 1 M X_SUM [8] $end
$var wire 1 N X_SUM [7] $end
$var wire 1 O X_SUM [6] $end
$var wire 1 P X_SUM [5] $end
$var wire 1 Q X_SUM [4] $end
$var wire 1 R X_SUM [3] $end
$var wire 1 S X_SUM [2] $end
$var wire 1 T X_SUM [1] $end
$var wire 1 U X_SUM [0] $end
$var wire 1 V X_AVG [11] $end
$var wire 1 W X_AVG [10] $end
$var wire 1 X X_AVG [9] $end
$var wire 1 Y X_AVG [8] $end
$var wire 1 Z X_AVG [7] $end
$var wire 1 [ X_AVG [6] $end
$var wire 1 \ X_AVG [5] $end
$var wire 1 ] X_AVG [4] $end
$var wire 1 ^ X_AVG [3] $end
$var wire 1 _ X_AVG [2] $end
$var wire 1 ` X_AVG [1] $end
$var wire 1 a X_AVG [0] $end
$var wire 1 b X_APPR [11] $end
$var wire 1 c X_APPR [10] $end
$var wire 1 d X_APPR [9] $end
$var wire 1 e X_APPR [8] $end
$var wire 1 f X_APPR [7] $end
$var wire 1 g X_APPR [6] $end
$var wire 1 h X_APPR [5] $end
$var wire 1 i X_APPR [4] $end
$var wire 1 j X_APPR [3] $end
$var wire 1 k X_APPR [2] $end
$var wire 1 l X_APPR [1] $end
$var wire 1 m X_APPR [0] $end
$var wire 1 n x_0 [7] $end
$var wire 1 o x_0 [6] $end
$var wire 1 p x_0 [5] $end
$var wire 1 q x_0 [4] $end
$var wire 1 r x_0 [3] $end
$var wire 1 s x_0 [2] $end
$var wire 1 t x_0 [1] $end
$var wire 1 u x_0 [0] $end
$var wire 1 v x_1 [7] $end
$var wire 1 w x_1 [6] $end
$var wire 1 x x_1 [5] $end
$var wire 1 y x_1 [4] $end
$var wire 1 z x_1 [3] $end
$var wire 1 { x_1 [2] $end
$var wire 1 | x_1 [1] $end
$var wire 1 } x_1 [0] $end
$var wire 1 ~ x_2 [7] $end
$var wire 1 !! x_2 [6] $end
$var wire 1 "! x_2 [5] $end
$var wire 1 #! x_2 [4] $end
$var wire 1 $! x_2 [3] $end
$var wire 1 %! x_2 [2] $end
$var wire 1 &! x_2 [1] $end
$var wire 1 '! x_2 [0] $end
$var wire 1 (! x_3 [7] $end
$var wire 1 )! x_3 [6] $end
$var wire 1 *! x_3 [5] $end
$var wire 1 +! x_3 [4] $end
$var wire 1 ,! x_3 [3] $end
$var wire 1 -! x_3 [2] $end
$var wire 1 .! x_3 [1] $end
$var wire 1 /! x_3 [0] $end
$var wire 1 0! x_4 [7] $end
$var wire 1 1! x_4 [6] $end
$var wire 1 2! x_4 [5] $end
$var wire 1 3! x_4 [4] $end
$var wire 1 4! x_4 [3] $end
$var wire 1 5! x_4 [2] $end
$var wire 1 6! x_4 [1] $end
$var wire 1 7! x_4 [0] $end
$var wire 1 8! x_5 [7] $end
$var wire 1 9! x_5 [6] $end
$var wire 1 :! x_5 [5] $end
$var wire 1 ;! x_5 [4] $end
$var wire 1 <! x_5 [3] $end
$var wire 1 =! x_5 [2] $end
$var wire 1 >! x_5 [1] $end
$var wire 1 ?! x_5 [0] $end
$var wire 1 @! x_6 [7] $end
$var wire 1 A! x_6 [6] $end
$var wire 1 B! x_6 [5] $end
$var wire 1 C! x_6 [4] $end
$var wire 1 D! x_6 [3] $end
$var wire 1 E! x_6 [2] $end
$var wire 1 F! x_6 [1] $end
$var wire 1 G! x_6 [0] $end
$var wire 1 H! x_7 [7] $end
$var wire 1 I! x_7 [6] $end
$var wire 1 J! x_7 [5] $end
$var wire 1 K! x_7 [4] $end
$var wire 1 L! x_7 [3] $end
$var wire 1 M! x_7 [2] $end
$var wire 1 N! x_7 [1] $end
$var wire 1 O! x_7 [0] $end
$var wire 1 P! x_8 [7] $end
$var wire 1 Q! x_8 [6] $end
$var wire 1 R! x_8 [5] $end
$var wire 1 S! x_8 [4] $end
$var wire 1 T! x_8 [3] $end
$var wire 1 U! x_8 [2] $end
$var wire 1 V! x_8 [1] $end
$var wire 1 W! x_8 [0] $end
$var wire 1 X! cmp_0 [7] $end
$var wire 1 Y! cmp_0 [6] $end
$var wire 1 Z! cmp_0 [5] $end
$var wire 1 [! cmp_0 [4] $end
$var wire 1 \! cmp_0 [3] $end
$var wire 1 ]! cmp_0 [2] $end
$var wire 1 ^! cmp_0 [1] $end
$var wire 1 _! cmp_0 [0] $end
$var wire 1 `! cmp_1 [7] $end
$var wire 1 a! cmp_1 [6] $end
$var wire 1 b! cmp_1 [5] $end
$var wire 1 c! cmp_1 [4] $end
$var wire 1 d! cmp_1 [3] $end
$var wire 1 e! cmp_1 [2] $end
$var wire 1 f! cmp_1 [1] $end
$var wire 1 g! cmp_1 [0] $end
$var wire 1 h! cmp_2 [7] $end
$var wire 1 i! cmp_2 [6] $end
$var wire 1 j! cmp_2 [5] $end
$var wire 1 k! cmp_2 [4] $end
$var wire 1 l! cmp_2 [3] $end
$var wire 1 m! cmp_2 [2] $end
$var wire 1 n! cmp_2 [1] $end
$var wire 1 o! cmp_2 [0] $end
$var wire 1 p! cmp_3 [7] $end
$var wire 1 q! cmp_3 [6] $end
$var wire 1 r! cmp_3 [5] $end
$var wire 1 s! cmp_3 [4] $end
$var wire 1 t! cmp_3 [3] $end
$var wire 1 u! cmp_3 [2] $end
$var wire 1 v! cmp_3 [1] $end
$var wire 1 w! cmp_3 [0] $end
$var wire 1 x! cmp_4 [7] $end
$var wire 1 y! cmp_4 [6] $end
$var wire 1 z! cmp_4 [5] $end
$var wire 1 {! cmp_4 [4] $end
$var wire 1 |! cmp_4 [3] $end
$var wire 1 }! cmp_4 [2] $end
$var wire 1 ~! cmp_4 [1] $end
$var wire 1 !" cmp_4 [0] $end
$var wire 1 "" cmp_5 [7] $end
$var wire 1 #" cmp_5 [6] $end
$var wire 1 $" cmp_5 [5] $end
$var wire 1 %" cmp_5 [4] $end
$var wire 1 &" cmp_5 [3] $end
$var wire 1 '" cmp_5 [2] $end
$var wire 1 (" cmp_5 [1] $end
$var wire 1 )" cmp_5 [0] $end
$var wire 1 *" cmp_6 [7] $end
$var wire 1 +" cmp_6 [6] $end
$var wire 1 ," cmp_6 [5] $end
$var wire 1 -" cmp_6 [4] $end
$var wire 1 ." cmp_6 [3] $end
$var wire 1 /" cmp_6 [2] $end
$var wire 1 0" cmp_6 [1] $end
$var wire 1 1" cmp_6 [0] $end
$var wire 1 2" cmp_7 [7] $end
$var wire 1 3" cmp_7 [6] $end
$var wire 1 4" cmp_7 [5] $end
$var wire 1 5" cmp_7 [4] $end
$var wire 1 6" cmp_7 [3] $end
$var wire 1 7" cmp_7 [2] $end
$var wire 1 8" cmp_7 [1] $end
$var wire 1 9" cmp_7 [0] $end
$var integer 32 :" i $end
$upscope $end
$upscope $end
$enddefinitions $end
#0
$dumpvars
0%
1&
x'
0(
x)
x*
b10001111 2
bx 3
bx H
bx I
b11111010000 #
b10100 $
b10111000101111011010010110111000101110011001000110000101110100 !
b101110001011110110111101110101011101000101111101100111011011110110110001100100011001010110111000101110011001000110000101110100 "
bx ,
b10 -
b0 .
b0 /
b0 0
b0 1
bx :"
1+
x=
x<
x;
x:
x9
x8
x7
x6
x5
x4
xU
xT
xS
xR
xQ
xP
xO
xN
xM
xL
xK
xJ
xa
x`
x_
x^
x]
x\
x[
xZ
xY
xX
xW
xV
xm
xl
xk
xj
xi
xh
xg
xf
xe
xd
xc
xb
xu
xt
xs
xr
xq
xp
xo
xn
x}
x|
x{
xz
xy
xx
xw
xv
x'!
x&!
x%!
x$!
x#!
x"!
x!!
x~
x/!
x.!
x-!
x,!
x+!
x*!
x)!
x(!
x7!
x6!
x5!
x4!
x3!
x2!
x1!
x0!
x?!
x>!
x=!
x<!
x;!
x:!
x9!
x8!
xG!
xF!
xE!
xD!
xC!
xB!
xA!
x@!
xO!
xN!
xM!
xL!
xK!
xJ!
xI!
xH!
xW!
xV!
xU!
xT!
xS!
xR!
xQ!
xP!
x_!
x^!
x]!
x\!
x[!
xZ!
xY!
xX!
xg!
xf!
xe!
xd!
xc!
xb!
xa!
x`!
xo!
xn!
xm!
xl!
xk!
xj!
xi!
xh!
xw!
xv!
xu!
xt!
xs!
xr!
xq!
xp!
x!"
x~!
x}!
x|!
x{!
xz!
xy!
xx!
x)"
x("
x'"
x&"
x%"
x$"
x#"
x""
x1"
x0"
x/"
x."
x-"
x,"
x+"
x*"
x9"
x8"
x7"
x6"
x5"
x4"
x3"
x2"
1>
0?
1G
1F
1E
1D
0C
0B
0A
1@
$end
#500
0&
0+
0>
1%
1?
b0 :"
b1 :"
b10 :"
b11 :"
b100 :"
b101 :"
b110 :"
b111 :"
b1000 :"
b1001 :"
b0xxxxxxxxx H
b0 I
0U
0T
0S
0R
0Q
0P
0O
0N
0M
0L
0K
0J
0u
0t
0s
0r
0q
0p
0o
0n
0}
0|
0{
0z
0y
0x
0w
0v
0'!
0&!
0%!
0$!
0#!
0"!
0!!
0~
0/!
0.!
0-!
0,!
0+!
0*!
0)!
0(!
07!
06!
05!
04!
03!
02!
01!
00!
0?!
0>!
0=!
0<!
0;!
0:!
09!
08!
0G!
0F!
0E!
0D!
0C!
0B!
0A!
0@!
0O!
0N!
0M!
0L!
0K!
0J!
0I!
0H!
0W!
0V!
0U!
0T!
0S!
0R!
0Q!
0P!
04
0w!
0v!
0u!
0t!
0s!
0r!
0q!
0p!
0o!
0n!
0m!
0l!
0k!
0j!
0i!
0h!
0g!
0f!
0e!
0d!
0c!
0b!
0a!
0`!
0_!
0^!
0]!
0\!
0[!
0Z!
0Y!
0X!
0a
0`
0_
0^
0]
0\
0[
0Z
0Y
0X
0W
0V
0!"
0~!
0}!
0|!
0{!
0z!
0y!
0x!
0)"
0("
0'"
0&"
0%"
0$"
0#"
0""
01"
00"
0/"
0."
0-"
0,"
0+"
0*"
09"
08"
07"
06"
05"
04"
03"
02"
0m
0l
0k
0j
0i
0h
0g
0f
0e
0d
0c
0b
#1000
1&
1+
1>
b0 :"
b1 :"
b10 :"
b11 :"
b100 :"
b101 :"
b110 :"
b111 :"
b1000 :"
b1001 :"
#1500
0&
0+
0>
b0 H
0=
0<
0;
0:
09
08
07
06
05
#2000
1&
1+
1>
b0 :"
b1 :"
b10 :"
b11 :"
b100 :"
b101 :"
b110 :"
b111 :"
b1000 :"
b1001 :"
#2500
0%
0'
0&
0+
0?
0>
#3000
1&
1+
1>
b1 I
1U
1T
1S
1R
1N
1a
1`
1_
1^
#3500
b1 ,
0&
0+
0>
b1011 2
b10 ,
0E
0@
b10001 H
1=
19
#4000
1&
1+
1>
b10 I
0U
0S
1Q
1}
1|
1z
1_!
1^!
1\!
0`
0_
0^
1]
1!"
1~!
1|!
11"
10"
1."
19"
18"
16"
1m
1l
1h
1g
#4500
0&
0+
0>
b1011101 2
b11 ,
0F
1E
1C
1A
b11111 H
1<
1;
1:
#5000
1&
1+
1>
b11 I
1U
1S
0R
1P
1O
1`
1^
#5500
0&
0+
0>
b100000 2
b100 ,
0G
0E
0D
0C
1B
0A
b101011 H
0;
09
18
#6000
1&
1+
1>
b100 I
0P
0O
0N
1M
1_
#6500
0&
0+
0>
b11110011 2
b101 ,
1G
1F
1C
1A
1@
b101111 H
1;
#7000
1&
1+
1>
b101 I
0U
0S
1R
0Q
0M
1L
0a
0_
1\
1*!
1b!
0!"
0~!
0|!
1z!
01"
00"
0."
1,"
09"
08"
06"
14"
0m
0l
0g
1e
#7500
0&
0+
0>
b111110 2
b110 ,
0G
1E
1D
0A
0@
b1100101 H
0<
0:
17
#8000
1&
1+
1>
b110 I
0T
1O
0`
0^
0]
0\
1[
1>!
1=!
1<!
1;!
1:!
1n!
1m!
1l!
1k!
1j!
1("
1'"
1&"
1%"
1$"
10"
1/"
1."
1-"
18"
17"
16"
15"
1l
1k
1j
0e
1d
#8500
0&
0+
0>
b11100101 2
b111 ,
1G
0F
0D
0C
1A
1@
b10001110 H
0=
1<
1:
08
07
16
#9000
1&
1+
1>
b111 I
1U
1S
1P
0O
1M
1`
1^
1]
#9500
0&
0+
0>
b11 2
b1000 ,
1F
0E
0B
0A
0@
b10101011 H
1=
0;
18
#10000
1&
1+
1>
b1000 I
0U
0S
0R
1Q
1O!
1N!
1w!
1v!
#10500
0&
0+
0>
b1100 2
0G
0F
1E
1D
#11000
1&
1+
1>
1'
b1001 ,
b1001 I
1S
1R
1U!
1T!
0`
1_
#11500
0&
0+
0>
b1110100 2
b1010 ,
0D
1C
1B
1A
b10101101 H
0<
1;
#12000
1&
1+
1>
b10101101 3
b1 /
b1010 I
b1 I
1U
0S
0R
0Q
1a
0_
#12500
0&
0+
0>
b1111001 2
b1011 ,
1G
0E
1D
b10101001 H
0;
#13000
1&
1+
1>
b10101001 3
b10 /
b10 I
1T
1S
1R
0P
1N
0}
0|
0z
0_!
0^!
0\!
1_
0^
0]
1\
1'!
1%!
1$!
1#!
1!!
1g!
1e!
1d!
1c!
0b!
1a!
1!"
1}!
1|!
1{!
0z!
1y!
11"
00"
0,"
1+"
19"
08"
04"
13"
1m
0l
0j
0h
1g
1e
#13500
0&
0+
0>
b1 2
b1100 ,
0D
0C
0B
0A
b11011010 H
0=
1<
19
08
17
#14000
1&
1+
1>
b11011010 3
b11 /
b11 I
0S
0R
1Q
1P
0N
0%!
0$!
0#!
0!!
0g!
0e!
0d!
0c!
1b!
0a!
1`
0_
1^
1]
0\
0!"
0}!
0|!
0{!
1z!
0y!
01"
10"
1,"
0+"
09"
18"
14"
03"
0m
1l
1j
1h
0g
0e
#14500
0&
0+
0>
b110000 2
b1101 ,
0G
1C
1B
b10101100 H
0<
1;
09
18
07
#15000
1&
1+
1>
b10101100 3
b100 /
b100 I
0Q
0P
1O
1+!
1c!
0a
0`
1_
1{!
#15500
0&
0+
0>
b101110 2
b1110 ,
1F
1E
1D
0C
b10101110 H
1<
#16000
1&
1+
1>
b10101110 3
b101 /
b101 I
0U
1S
1R
1Q
1P
0M
16!
15!
14!
12!
1`
0^
0]
#16500
0&
0+
0>
b10100100 2
b1111 ,
0F
0D
1@
b10010101 H
1=
0<
0:
19
08
#17000
1&
1+
1>
b10010101 3
b110 /
b110 I
0T
0R
0Q
1N
0>!
0=!
0<!
0;!
0:!
0k!
0_
1]
0%"
00"
0/"
0."
08"
07"
06"
0l
0k
0j
1i
1f
1e
0d
#17500
0&
0+
0>
b1110110 2
b10000 ,
1F
1C
1A
0@
b10010010 H
0=
1<
0;
#18000
1&
1+
1>
b10010010 3
b111 /
b111 I
1U
1Q
0N
1a
0`
1_
0]
#18500
0&
0+
0>
b10000100 2
b10001 ,
0F
0C
0B
0A
1@
b10000100 H
0<
1;
09
#19000
1&
1+
1>
b10000100 3
b1000 /
b1000 I
0U
1T
1N
0O!
0N!
0w!
0v!
0a
1]
#19500
0&
0+
0>
b1010001 2
b10010 ,
1G
0E
1C
1A
0@
b10010100 H
19
#20000
1&
1+
1>
b10010100 3
b1001 /
b1001 I
1U
0S
1R
0O
0N
1M
1W!
0U!
0T!
1S!
1Q!
19"
04"
13"
1a
1`
0_
1^
1m
1j
0h
1g
0e
1d
#20500
0&
0+
0>
b11010110 2
b10011 ,
0G
1F
1E
1@
b11000010 H
1<
0;
09
17
#21000
1&
1+
1>
b11000010 3
b1010 /
b1010 I
b1 I
0T
1S
0P
1N
0a
1_
0^
0]
1\
#21500
0&
0+
0>
b1110000 2
b10100 ,
0F
0E
1B
0@
b11001110 H
1;
1:
#22000
1&
1+
1>
b11001110 3
b1011 /
b10 I
0U
0R
1a
0`
#22500
0&
0+
0>
b110101 2
b10101 ,
1G
1E
0A
b11001101 H
1=
0<
#23000
1&
1+
1>
b11001101 3
b1100 /
b11 I
0S
1R
0Q
1O
1%!
1#!
1"!
1g!
1e!
1`
0_
1^
1!"
1}!
11"
1/"
#23500
0&
0+
0>
b10000 2
b10110 ,
0G
0E
0B
b11010100 H
0=
0:
19
#24000
1&
1+
1>
b11010100 3
b1101 /
b100 I
1P
0O
0*!
0a
0`
#24500
0&
0+
0>
b100011 2
b10111 ,
1G
1F
0C
1B
b11010000 H
0;
#25000
1&
1+
1>
b11010000 3
b1110 /
b101 I
1U
1S
1Q
0P
17!
05!
04!
1o!
0m!
0l!
1`
1_
0^
1)"
0'"
0&"
#25500
0&
0+
0>
b11100111 2
b11000 ,
1E
1A
1@
b11001110 H
1<
1;
1:
09
#26000
1&
1+
1>
b11001110 3
b1111 /
b110 I
0U
0S
0R
0Q
1P
1O
1^
#26500
0&
0+
0>
b111011 2
b11001 ,
0E
1D
1C
0A
0@
b11010111 H
1=
0:
19
#27000
1&
1+
1>
b11010111 3
b10000 /
b111 I
1U
1S
0O
1G!
1F!
1D!
1C!
1B!
1w!
1v!
1t!
1s!
1r!
1a
0^
1&"
1%"
10"
0/"
1."
#27500
0&
0+
0>
b1101101 2
b11010 ,
0F
1E
0C
1A
b11001111 H
1:
09
#28000
1&
1+
1>
b11001111 3
b10001 /
b1000 I
0U
1T
1R
0P
0`
#28500
0&
0+
0>
b110100 2
b11011 ,
0G
0D
1C
0A
b11001100 H
0=
0<
#29000
1&
1+
1>
b11001100 3
b10010 /
b1001 I
1U
0T
0S
0R
1Q
1P
1O
0N
0W!
1U!
1R!
0Q!
18"
16"
14"
03"
0_
1l
0j
0g
0f
#29500
0&
0+
0>
b1100001 2
b11100 ,
1G
0E
0C
1A
b10110000 H
0;
0:
19
18
07
#30000
1&
1+
1>
b10110000 3
b10011 /
b1010 I
b1 I
0U
1S
1R
1N
0M
1u
1p
1o
1_!
1Z!
1Y!
0a
1_
1]
0\
0u
0p
0o
0}!
0{!
1y!
00"
0."
0-"
1+"
0_!
0Z!
0Y!
1}!
1{!
0y!
08"
06"
05"
13"
0l
1j
0i
1h
1g
1e
10"
1."
1-"
0+"
18"
16"
15"
03"
1l
0j
1i
0h
0g
0e
#30500
0&
0+
0>
b10001001 2
b11101 ,
1D
0B
0A
1@
b10100001 H
1=
09
#31000
1&
1+
1>
b10100001 3
b10100 /
b10 I
1U
0R
0P
0O
0N
1M
1a
1`
#31500
0&
0+
0>
b10111111 2
b11110 ,
1F
1E
1C
1B
b10100101 H
1;
#32000
1&
1+
1>
b10100101 3
b10101 /
b11 I
1T
1R
1N
0'!
0%!
0#!
0"!
0g!
0e!
0b!
0]
1\
1u
1p
1o
0!"
0}!
0z!
1_!
1Z!
1Y!
1!"
0{!
1z!
1y!
00"
0."
0-"
1+"
08"
06"
05"
13"
0l
1j
0i
1h
1g
1e
#32500
0&
0+
0>
b11011100 2
b11111 ,
0G
0F
0B
1A
b11100001 H
0;
17
#33000
1&
1+
1>
b11100001 3
b10110 /
b100 I
0S
0Q
1P
1O
0N
0M
0L
1K
0+!
0c!
0`
1^
1]
1O!
1M!
1L!
1J!
1I!
0v!
1u!
0s!
1q!
0("
1'"
0%"
1#"
1/"
1."
17"
16"
1k
0j
1i
0h
1f
#33500
0&
0+
0>
b11010011 2
b100000 ,
1G
1F
0E
0D
b100001000 H
0=
1:
08
07
06
15
#34000
1&
1+
1>
b100001000 3
b10111 /
b101 I
1Q
0P
0O
1M
07!
06!
02!
0o!
0n!
0j!
0_
0^
0\
0[
1Z
1}
1z
1v
1\!
0Z!
0Y!
1X!
1|!
0z!
0y!
1x!
0/"
0,"
0+"
1*"
07"
04"
03"
12"
0k
0e
0d
1c
#34500
0&
0+
0>
b10011100 2
b100001 ,
0G
0F
1E
1D
0A
b100111101 H
1=
1;
19
18
#35000
1&
1+
1>
b100111101 3
b11000 /
b110 I
0U
0T
0R
1O
1N
0M
0a
1^
0]
0}
0z
0v
0\!
1Z!
1Y!
0X!
0|!
1z!
1y!
0x!
1/"
1,"
1+"
0*"
17"
14"
13"
02"
1k
1e
1d
0c
#35500
0&
0+
0>
b10001111 2
b100010 ,
1G
1F
0C
b100010100 H
0=
0:
08
#36000
1&
1+
1>
b100010100 3
b11001 /
b111 I
1S
0Q
1P
0O
0N
1M
0G!
0F!
0D!
0C!
0B!
1`
0^
1]
1}
1z
1v
1G!
1F!
1E!
1D!
1@!
1v!
0r!
0q!
1p!
1\!
0Z!
0Y!
1X!
1|!
0z!
0y!
1x!
1("
0$"
0#"
1""
10"
0,"
0+"
1*"
18"
04"
03"
12"
1l
0i
0g
0f
0d
1c
#36500
0&
0+
0>
b11111000 2
b100011 ,
0G
0F
0E
1C
1B
1A
b101000101 H
1=
09
17
#37000
1&
1+
1>
b101000101 3
b11010 /
b1000 I
1U
1T
1R
1N
0O!
0M!
0L!
0J!
0I!
1a
0`
0]
1\
1=!
1<!
1;!
18!
1m!
1l!
1k!
1h!
0)"
0("
1%"
01"
00"
1-"
09"
08"
15"
0m
0l
1j
1i
1h
1g
#37500
0&
0+
0>
b11101001 2
b100100 ,
1G
0C
b101100101 H
18
#38000
1&
1+
1>
b101100101 3
b11011 /
b1001 I
0U
0T
0R
1O
0N
0M
1L
0U!
0S!
0R!
1_
1]
#38500
0&
0+
0>
b1010000 2
b100101 ,
0G
0D
1C
0B
0@
b101111100 H
0=
1:
19
#39000
1&
1+
1>
b101111100 3
b11100 /
b1010 I
b1 I
1U
1T
0S
1Q
0P
0u
1q
0p
1`
0_
#39500
0&
0+
0>
b10100011 2
b100110 ,
1G
1F
0C
1B
0A
1@
b101111001 H
1=
0;
#40000
1&
1+
1>
b101111001 3
b11101 /
b10 I
0T
1S
1R
0Q
1P
1|
0z
1x
1^!
0\!
1Z!
0a
1_
1~!
0|!
1z!
11"
10"
0/"
0."
0-"
1,"
19"
18"
07"
06"
05"
14"
1m
1l
0k
0g
1f
#40500
0&
0+
0>
b11111011 2
b100111 ,
1D
1C
1A
b110000101 H
1;
0:
09
08
07
16
#41000
1&
1+
1>
b110000101 3
b11110 /
b11 I
0S
0O
1N
1a
0`
1^
#41500
0&
0+
0>
b10000011 2
b101000 ,
0D
0C
0B
0A
b110001100 H
0=
1:
#42000
1&
1+
1>
b110001100 3
b11111 /
b100 I
0U
0R
1Q
0P
1O
0N
1/!
1.!
1(!
1g!
1f!
1`!
1`
0_
0^
#42500
0&
0+
0>
b1101100 2
b101001 ,
0G
0F
1E
1D
1B
1A
0@
b110000001 H
1=
0;
0:
#43000
1&
1+
1>
b110000001 3
b100000 /
b101 I
1U
1R
0Q
1P
1N
1M
0L
15!
14!
12!
11!
0a
0`
1^
0]
#43500
0&
0+
0>
b10110000 2
b101010 ,
0E
0D
1C
0A
1@
b101110100 H
0=
1;
19
18
17
06
#44000
1&
1+
1>
b101110100 3
b100001 /
b110 I
1S
1Q
0=!
0<!
0;!
08!
0k!
1j!
1i!
0h!
1`
1)"
1("
0%"
#44500
0&
0+
0>
b1100100 2
b101011 ,
1E
0C
1A
0@
b101110111 H
1=
1<
#45000
1&
1+
1>
b101110111 3
b100010 /
b111 I
0U
1T
0S
0R
0P
0G!
0F!
0D!
1B!
1A!
0@!
0w!
0v!
0t!
1r!
1q!
0p!
1a
0`
1_
0^
0)"
0("
1$"
1#"
0""
#45500
0&
0+
0>
b1010 2
b101100 ,
1F
0E
1D
0B
0A
b101110001 H
0<
0;
#46000
1&
1+
1>
b101110001 3
b100011 /
b1000 I
0T
1S
0Q
1P
0M
1N!
1L!
1`
0_
1^
0\
0}
0|
0x
0v
0_!
0^!
1[!
0Z!
1Y!
0X!
0z!
0,"
04"
0h
0e
#46500
0&
0+
0>
b11000101 2
b101101 ,
1G
0F
1E
0D
1A
1@
b100101111 H
1<
1;
1:
09
07
#47000
1&
1+
1>
b100101111 3
b100100 /
b1001 I
0S
0P
1_
0^
#47500
0&
0+
0>
b1011010 2
b101110 ,
0G
1F
0E
1D
1C
0@
b100101011 H
0;
#48000
1&
1+
1>
b100101011 3
b100101 /
b1010 I
b1 I
1T
1R
1t
1r
1^!
1\!
0a
0`
0_
1^
#48500
0&
0+
0>
b100 2
b101111 ,
0F
1E
0D
0C
0A
b100101100 H
0=
0<
1;
#49000
1&
1+
1>
b100101100 3
b100110 /
b10 I
1U
1P
0O
0N
1{
1`
1_
0^
1]
1\
1[
0Z
0/!
0.!
0(!
0g!
0f!
0`!
0!"
1|!
1{!
1y!
0x!
01"
00"
1/"
1."
1,"
1+"
0*"
09"
08"
17"
16"
14"
13"
02"
0m
0l
1k
0i
1g
1e
1d
0c
#49500
0&
0+
0>
b1111001 2
b110000 ,
1G
0E
1D
1C
1B
1A
b11111110 H
1<
19
17
16
05
#50000
1&
1+
1>
b11111110 3
b100111 /
b11 I
0T
1N
1M
1L
0K
0`
0_
1^
0]
05!
04!
02!
01!
0m!
0l!
0j!
0i!
0&"
0."
06"
0j
0g
#50500
0&
0+
0>
b101 2
b110001 ,
1E
0D
0C
0B
0A
b11100101 H
1=
0<
0:
09
#51000
1&
1+
1>
b11100101 3
b101000 /
b100 I
1T
0N
1/!
1-!
1g!
1e!
1`
1]
0\
0E!
0B!
0A!
1v!
0u!
1t!
0r!
0q!
1("
0'"
1&"
0$"
0#"
10"
0/"
1."
1-"
0,"
18"
07"
16"
15"
04"
1l
0k
1j
1h
0f
#51500
0&
0+
0>
b10011000 2
b110010 ,
0G
0E
1D
1C
1@
b11001010 H
0=
1<
0;
1:
08
#52000
1&
1+
1>
b11001010 3
b101001 /
b101 I
1S
0R
1Q
0P
1O
1a
1_
#52500
0&
0+
0>
b111010 2
b110011 ,
1F
1B
0@
b11010000 H
0<
0:
19
#53000
1&
1+
1>
b11010000 3
b101010 /
b110 I
0T
0S
0Q
1P
1N
0M
1>!
1<!
1;!
1:!
1n!
1l!
1k!
1j!
0`
0_
0^
0t
0r
0q
0o
1%"
1$"
0^!
1]!
0\!
0[!
0Y!
1!"
0~!
1}!
0|!
0{!
0y!
1,"
0+"
14"
03"
0h
0e
#53500
0&
0+
0>
b111011 2
b110100 ,
1G
b10011101 H
1=
1;
1:
07
#54000
1&
1+
1>
b10011101 3
b101011 /
b111 I
0U
1R
1Q
0O
1G!
1F!
1D!
1C!
1B!
1w!
1s!
1r!
1_
1^
0]
1)"
11"
19"
1m
0j
1i
#54500
0&
0+
0>
b11000011 2
b110101 ,
0D
0C
0B
1A
1@
b10011001 H
0;
#55000
1&
1+
1>
b10011001 3
b101100 /
b1000 I
1U
0R
1O
0N
1M
0N!
0L!
0_
0^
1\
1t
1r
1q
1o
1^!
0]!
1\!
1[!
1Y!
0!"
1~!
0}!
1|!
1{!
1y!
01"
0,"
1+"
09"
04"
13"
0m
1j
0i
1h
1e
#55500
0&
0+
0>
b101101 2
b110110 ,
0F
1E
1D
1B
0A
0@
b11010011 H
1<
0:
17
#56000
1&
1+
1>
b11010011 3
b101101 /
b1001 I
1R
0P
1N
0M
1W!
1U!
1T!
1R!
1]
0\
0t
0r
0q
0o
0^!
1]!
0\!
0[!
0Y!
1!"
0~!
1}!
0|!
0{!
0y!
11"
1,"
0+"
19"
14"
03"
1m
0j
1i
0h
0e
#56500
0&
0+
0>
b10010110 2
b110111 ,
0G
1F
0D
1C
0B
1@
b10011101 H
0<
1;
1:
07
#57000
1&
1+
1>
b10011101 3
b101110 /
b1010 I
b1 I
1S
0R
0O
0N
1M
1`
1_
#57500
0&
0+
0>
b10101000 2
b111000 ,
0F
0E
1D
0C
1B
b10100101 H
0:
09
18
#58000
1&
1+
1>
b10100101 3
b101111 /
b10 I
0S
1R
1P
1N
0{
0]!
0`
0_
1^
0]
1\
#58500
0&
0+
0>
b10101110 2
b111001 ,
1F
1E
b10111001 H
0;
1:
19
#59000
1&
1+
1>
b10111001 3
b110000 /
b11 I
0U
1T
1S
0Q
1O
1`
1_
#59500
0&
0+
0>
b10101101 2
b111010 ,
1G
0F
b11000000 H
0=
0:
09
08
17
#60000
1&
1+
1>
b11000000 3
b110001 /
b100 I
0R
1Q
0P
0O
0M
0L
1K
0/!
0-!
0g!
0e!
0a
0_
0^
0\
0[
1Z
0!"
0}!
#60500
0&
0+
0>
b1110 2
b111011 ,
0G
1F
0B
0@
b11010101 H
1=
1;
19
#61000
1&
1+
1>
b11010101 3
b110010 /
b101 I
0T
1R
0Q
0N
16!
15!
14!
1a
1]
1\
1[
0Z
#61500
0&
0+
0>
b11010101 2
b111100 ,
1G
0F
0D
1C
1A
1@
b11000011 H
1<
0;
09
